/ import App from './App';

// const el  =React.createElement('h1', null, ' Today is 25.06' );

// const AppList = ()=>{
//   const  item = ['menu 1','menu 2','menu 3'];
//   const firstItem = <li>menu 0</li>;
//   const isAuth = false;
//    return(<ul className = "appList">
//     {isAuth ?  firstItem : null}
//     { item.map(item=><li>{item}</li>)}
   
//     </ul>)
// }

// const AppHeader=()=>{
  
//   return <h1 className="header">List</h1>
// }

// const AppInput = ()=>{
//   const placeholder = 'Type text...';

//   return (
//     <label htmlFor="search" className = "appList">
//       Input date: <br></br>
//       <input id="search" placeholder={placeholder} className = "appList"/>
//     </label>
//   )
// }


// import * as serviceWorker from './serviceWorker';
// робить рендер нашого компонента
// ReactDOM.render(
//   <React.StrictMode>
//     <App />
//   </React.StrictMode>,
//   document.getElementById('root')
// );

// If you want your app to work offline and load faster, you can change
// unregister() to register() below. Note this comes with some pitfalls.
// Learn more about service workers: https://bit.ly/CRA-PWA

// serviceWorker.unregister();


<img src={ReactLogo}/>